…
  return(result)
  }
```

``` r
simulation_results_mu_0 = 
  tibble(iter = 1:5000) %>%
  mutate(simulation_output = map(iter, ~simulate_t_test(true_mean = 0))) %>%
  unnest(simulation_output)

simulation_results_mu_0
```

    ## # A tibble: 5,000 × 3
    ##     iter sample_mean p_value
    ##    <int>       <dbl>   <dbl>
    ##  1     1       0.853  0.386 
    ##  2     2      -0.527  0.511 
    ##  3     3       1.42   0.0725
    ##  4     4      -1.04   0.292 
    ##  5     5      -1.34   0.156 
    ##  6     6      -0.649  0.550 
    ##  7     7       1.27   0.136 
    ##  8     8      -1.65   0.0470
    ##  9     9      -0.246  0.783 
    ## 10    10      -0.651  0.485 
    ## # ℹ 4,990 more rows

``` r
true_mean_values = c(1, 2, 3, 4, 5, 6)

sim_res_multiple_means = 
  expand_grid(
    true_mean = true_mean_values,
    iter = 1:5000 ) %>%
  mutate(simulation_output = map(true_mean, ~simulate_t_test(true_mean = .x))) %>%
  unnest(simulation_output, names_sep = "_")

sim_res_multiple_means
```

    ## # A tibble: 30,000 × 4
    ##    true_mean  iter simulation_output_sample_mean simulation_output_p_value
    ##        <dbl> <int>                         <dbl>                     <dbl>
    ##  1         1     1                         1.22                     0.173 
    ##  2         1     2                        -0.289                    0.752 
    ##  3         1     3                         1.64                     0.0701
    ##  4         1     4                         1.25                     0.193 
    ##  5         1     5                         1.83                     0.0588
    ##  6         1     6                         1.54                     0.0872
    ##  7         1     7                         1.17                     0.163 
    ##  8         1     8                         0.997                    0.186 
    ##  9         1     9                         0.541                    0.591 
    ## 10         1    10                         0.875                    0.304 
    ## # ℹ 29,990 more rows
…
